Indian House Price Prediction Project – Indian_House_Pricing_Project
…
And 0.05% data having exactly same value.

Locality

library(dplyr)
locality_summary <- dt %>%
  group_by(City) %>%
  summarize(
    localities = paste(unique(Locality), collapse = ", "),
    no_localities = length(unique(Locality))
  )
print(locality_summary)

# A tibble: 42 × 3
   City        localities                                          no_localities
   <chr>       <chr>                                                       <int>
 1 Ahmedabad   Locality_74, Locality_387, Locality_382, Locality_…           500
 2 Amritsar    Locality_466, Locality_372, Locality_145, Locality…           500
 3 Bangalore   Locality_462, Locality_125, Locality_498, Locality…           500
 4 Bhopal      Locality_305, Locality_412, Locality_121, Locality…           500
 5 Bhubaneswar Locality_120, Locality_491, Locality_350, Locality…           500
 6 Bilaspur    Locality_490, Locality_241, Locality_74, Locality_…           500
 7 Chennai     Locality_84, Locality_143, Locality_398, Locality_…           500
 8 Coimbatore  Locality_254, Locality_103, Locality_139, Locality…           500
 9 Cuttack     Locality_180, Locality_305, Locality_164, Locality…           500
10 Dehradun    Locality_50, Locality_353, Locality_314, Locality_…           500
# ℹ 32 more rows
…
# Calculate average price per city
city_summary <- dt %>%
  group_by(City) %>%
  summarise(
    Avg_Price_Lakhs = mean(Price_in_Lakhs, na.rm = TRUE),
    Property_Count = n()
  )

print(city_summary)

# A tibble: 42 × 3
   City        Avg_Price_Lakhs Property_Count
   <chr>                 <dbl>          <int>
 1 Ahmedabad              254.           6411
 2 Amritsar               252.           6221
 3 Bangalore              258.           4144
 4 Bhopal                 256.           6284
 5 Bhubaneswar            255.           6323
 6 Bilaspur               252.           6263
 7 Chennai                257.           6168
 8 Coimbatore             257.           6461
 9 Cuttack                251.           6358
10 Dehradun               257.           6234
# ℹ 32 more rows
…
